I110081
I110082
I110083
I110084
I110085
I110086
I110087
I110088
I110089
I110090
I110091
I110092
I110093
I110094
I110095
I110096
I110097
I110098
I110099
I110100
I110101
I110102
I110103
I110104
I110105
I110106
I110107
I110108
I110109
I110110
I110111
I110112
I110113
I110114
I110115
I110116
I110117
I110118
I110119
I110120
I110121
I110122
I110123
I110124
I110125
I110131
I110132
I110133
I110134
I110135
I110136
I110137
I110138
I110139
I110140
I110141
I110142
I110143
I110144
I110145
I110146
I110147
I110148
I110149
I110150
I110151
I110152
I110153
I110154
I110155
I110156
I110157
I110158
I110159
I110160
I110161
I110162
I110163
I110164
I110165
I110166
I110167
I110168
I110169
I110170
I110171
I110172
I110173
I110174
I110175
I110176
I110177
I110178
I110179
